<?xml version="1.0" encoding="utf-8"?>
<!-- Generator: Adobe Illustrator 22.1.0, SVG Export Plug-In . SVG Version: 6.00 Build 0)  -->
<svg version="1.1" id="Layer_1" xmlns="http://www.w3.org/2000/svg" xmlns:xlink="http://www.w3.org/1999/xlink" x="0px" y="0px"
	 viewBox="0 0 383.9 511.9" style="enable-background:new 0 0 383.9 511.9;" xml:space="preserve">
<style type="text/css">
	.st0{fill:#FFFFFF;}
</style>
<g>
	<g>
		<path class="st0" d="M383.9,103.6c0-3.1-1.2-6.1-3.5-8.4L288.7,3.5l0,0c-2.2-2.2-5.2-3.5-8.5-3.5H25.3C11.4,0,0,11.3,0,25.2v461.5
			c0,13.9,11.3,25.2,25.2,25.2h333.4c13.9,0,25.2-11.3,25.2-25.2v-383C384,103.7,383.9,103.7,383.9,103.6z M292.2,40.9L343,91.8
			h-49.6c-0.7,0-1.3-0.6-1.3-1.3L292.2,40.9L292.2,40.9z M360,486.8c0,0.7-0.6,1.3-1.3,1.3H25.3c-0.7,0-1.3-0.6-1.3-1.3V25.2
			c0-0.7,0.6-1.3,1.3-1.3h242.9v66.5c0,13.9,11.3,25.2,25.2,25.2H360V486.8L360,486.8z"/>
	</g>
</g>
<g>
	<g>
		<path class="st0" d="M298.1,164H85.9c-6.6,0-12,5.4-12,12s5.4,12,12,12h212.2c6.6,0,12-5.4,12-12C310.1,169.4,304.7,164,298.1,164
			z"/>
	</g>
</g>
<g>
	<g>
		<path class="st0" d="M298.1,236.4H85.9c-6.6,0-12,5.4-12,12s5.4,12,12,12h212.2c6.6,0,12-5.4,12-12
			C310.1,241.7,304.7,236.4,298.1,236.4z"/>
	</g>
</g>
<g>
	<g>
		<path class="st0" d="M298.1,308.7H85.9c-6.6,0-12,5.4-12,12s5.4,12,12,12h212.2c6.6,0,12-5.4,12-12
			C310.1,314.1,304.7,308.7,298.1,308.7z"/>
	</g>
</g>
<g>
	<g>
		<path class="st0" d="M192,381H85.9c-6.6,0-12,5.4-12,12s5.4,12,12,12H192c6.6,0,12-5.4,12-12S198.6,381,192,381z"/>
	</g>
</g>
</svg>
