<?xml version="1.0" encoding="utf-8"?>
<!-- Generator: Adobe Illustrator 22.1.0, SVG Export Plug-In . SVG Version: 6.00 Build 0)  -->
<svg version="1.1" id="Layer_1" xmlns="http://www.w3.org/2000/svg" xmlns:xlink="http://www.w3.org/1999/xlink" x="0px" y="0px"
	 viewBox="0 0 512 393.6" style="enable-background:new 0 0 512 393.6;" xml:space="preserve">
<style type="text/css">
	.st0{fill:#FFFFFF;}
</style>
<g>
	<g>
		<path class="st0" d="M469.3,116.3h-52.1V42.7C417.2,19.2,398,0,374.4,0H42.7C19.2,0,0,19.2,0,42.7v191.8
			c0,23.6,19.2,42.7,42.7,42.7h52.1v73.5c0,23.6,19.2,42.7,42.7,42.7h331.7c23.6,0,42.7-19.2,42.7-42.7V159
			C512,135.5,492.8,116.3,469.3,116.3z M24.4,42.7c0-10.1,8.2-18.3,18.3-18.3h331.7c10.1,0,18.3,8.2,18.3,18.3v17.1H24.4V42.7z
			 M94.8,159v93.8H42.7c-10.1,0-18.3-8.2-18.3-18.3v-93.7h74.5C96.3,146.3,94.8,152.5,94.8,159z M24.4,116.4V84.2h368.3v32.1H137.6
			c-0.8,0-1.6,0-2.5,0.1H24.4z M469.3,369.1H137.6c-10.1,0-18.3-8.2-18.3-18.3V159c0-9.6,7.4-17.5,16.8-18.2h268.8
			c0.5,0,0.9,0,1.3-0.1h63c10.1,0,18.3,8.2,18.3,18.3v191.8h0C487.6,360.9,479.4,369.1,469.3,369.1z"/>
	</g>
</g>
<g>
	<g>
		<path class="st0" d="M340.2,196.1c-13.9,0-26.7,4.8-36.7,12.9c-10.3-8.3-23.2-12.9-36.8-12.9c-32.5,0-58.9,26.4-58.9,58.9
			s26.4,58.9,58.9,58.9c13.6,0,26.5-4.6,36.8-12.9c10.1,8.1,22.9,12.9,36.7,12.9c32.5,0,58.9-26.4,58.9-58.9
			S372.7,196.1,340.2,196.1z M288,282c-6,4.8-13.5,7.4-21.3,7.4c-19,0-34.5-15.5-34.5-34.5c0-19,15.5-34.5,34.5-34.5
			c7.9,0,15.3,2.6,21.3,7.4c-4.2,8.1-6.6,17.3-6.6,27.1C281.3,264.7,283.7,273.9,288,282z M340.2,289.4c-19,0-34.4-15.5-34.4-34.4
			c0-19,15.5-34.4,34.4-34.4c19,0,34.4,15.5,34.4,34.4C374.7,273.9,359.2,289.4,340.2,289.4z"/>
	</g>
</g>
</svg>
